<?xml version="1.0" encoding="UTF-8"?>
<svg width="15px" height="8px" viewBox="0 0 15 8" version="1.1" xmlns="http://www.w3.org/2000/svg" xmlns:xlink="http://www.w3.org/1999/xlink">
    <!-- Generator: Sketch 60.1 (88133) - https://sketch.com -->
    <title>icon_arrow_up</title>
    <desc>Created with Sketch.</desc>
    <g id="icon_arrow_up" stroke="none" stroke-width="1" fill="none" fill-rule="evenodd">
        <polyline id="Path" stroke="#2D373C" points="0 7.25739259 7.25739259 1.13686838e-13 14.5147852 7.25739259"></polyline>
    </g>
</svg>